{

"images": [
    "ressources/images/visuels_visuelMarin_roche2_sprite.png"
],

"framerate": 24,
"frames": [
    [1, 1, 247, 81, 0, -190, -318]
],

"animations": {
    "visuels_fondMarin_roche2_v1": { "frames": [0] }
},

"texturepacker": [
        "SmartUpdateHash: $TexturePacker:SmartUpdate:1bd432edfb9fad495c7c52b369db720b:077fe30516a00017983526c1cdee5c31:cc3b729e3138c2bb6f368a9829b684ae$",
        "Created with TexturePacker (https://www.codeandweb.com/texturepacker) for EaselJS"
]

}
