{

"images": [
    "ressources/images/visuel_fondMarin_sprite-0.png",
    "ressources/images/visuel_fondMarin_sprite-1.png",
    "ressources/images/visuel_fondMarin_sprite-2.png",
    "ressources/images/visuel_fondMarin_sprite-3.png"
],

"framerate": 24,
"frames": [
    [1, 1, 1974, 1080, 0, 0, 0],
    [1, 1, 1974, 1080, 0, 0, 0],
    [1, 1, 1974, 1080, 0, 0, 0],
    [1, 1, 1974, 1080, 0, 0, 0],
    [1, 1, 1974, 1080, 0, 0, 0],
    [1, 1, 1974, 1080, 1, 0, 0],
    [1, 1, 1974, 1080, 1, 0, 0],
    [1, 1, 1974, 1080, 1, 0, 0],
    [1, 1, 1974, 1080, 1, 0, 0],
    [1, 1, 1974, 1080, 1, 0, 0],
    [1, 1, 1974, 1080, 1, 0, 0],
    [1, 1, 1974, 1080, 1, 0, 0],
    [1, 1, 1974, 1080, 2, 0, 0],
    [1, 1, 1974, 1080, 2, 0, 0],
    [1, 1, 1974, 1080, 2, 0, 0],
    [1, 1, 1974, 1080, 2, 0, 0],
    [1, 1, 1974, 1080, 2, 0, 0],
    [1, 1, 1974, 1080, 3, 0, 0],
    [1, 1, 1974, 1080, 3, 0, 0],
    [1, 1, 1974, 1080, 3, 0, 0],
    [1, 1, 1974, 1080, 3, 0, 0],
    [1, 1, 1974, 1080, 3, 0, 0]
],

"animations": {
    "visuels_fondMarinComplet_frame1_v101": { "frames": [0] },
    "visuels_fondMarinComplet_frame1_v102": { "frames": [1] },
    "visuels_fondMarinComplet_frame1_v103": { "frames": [2] },
    "visuels_fondMarinComplet_frame1_v104": { "frames": [3] },
    "visuels_fondMarinComplet_frame1_v105": { "frames": [4] },
    "visuels_fondMarinComplet_frame1_v106": { "frames": [5] },
    "visuels_fondMarinComplet_frame1_v107": { "frames": [6] },
    "visuels_fondMarinComplet_frame1_v108": { "frames": [7] },
    "visuels_fondMarinComplet_frame1_v109": { "frames": [8] },
    "visuels_fondMarinComplet_frame1_v110": { "frames": [9] },
    "visuels_fondMarinComplet_frame1_v111": { "frames": [10] },
    "visuels_fondMarinComplet_frame1_v112": { "frames": [11] },
    "visuels_fondMarinComplet_frame1_v113": { "frames": [12] },
    "visuels_fondMarinComplet_frame1_v114": { "frames": [13] },
    "visuels_fondMarinComplet_frame1_v115": { "frames": [14] },
    "visuels_fondMarinComplet_frame1_v116": { "frames": [15] },
    "visuels_fondMarinComplet_frame1_v117": { "frames": [16] },
    "visuels_fondMarinComplet_frame1_v118": { "frames": [17] },
    "visuels_fondMarinComplet_frame1_v119": { "frames": [18] },
    "visuels_fondMarinComplet_frame1_v120": { "frames": [19] },
    "visuels_fondMarinComplet_frame1_v121": { "frames": [20] },
    "visuels_fondMarinComplet_frame1_v122": { "frames": [21] }
},

"texturepacker": [
        "SmartUpdateHash: $TexturePacker:SmartUpdate:1bfded8311d8efddb63cb32720f2fb52:c163110b943d1bf19fa7f0d485d38e95:84ef8d0a125860284af5b9d1321aaee0$",
        "Created with TexturePacker (https://www.codeandweb.com/texturepacker) for EaselJS"
]

}
